Homework3/array_multiplier/sim/wave.vcd
$date
	Fri Oct 10 21:02:06 2025
$end
$version
	Icarus Verilog
$end
$timescale
	1s
$end
$scope module test_bench $end
$var wire 4 ! gate_out [3:0] $end
$var wire 4 " data_out [3:0] $end
$var wire 4 # behav_out [3:0] $end
$var reg 2 $ a [1:0] $end
$var reg 2 % b [1:0] $end
$scope module DUT $end
$var wire 2 & a [1:0] $end
$var wire 2 ' b [1:0] $end
$var wire 1 ( c1 $end
$var wire 2 ) d0 [1:0] $end
$var wire 2 * d1 [1:0] $end
$var wire 1 + s1 $end
$var wire 4 , gate_out [3:0] $end
$var wire 2 - g1 [1:0] $end
$var wire 2 . g0 [1:0] $end
$var wire 4 / data_out [3:0] $end
$var reg 4 0 behav_out [3:0] $end
$upscope $end
$scope task check_result $end
$var reg 4 1 e [3:0] $end
$var reg 4 2 f [3:0] $end
$var reg 4 3 g [3:0] $end
$var reg 4 4 result [3:0] $end
$upscope $end
$upscope $end
$enddefinitions $end
#0
$dumpvars
bx 4
bx 3
bx 2
bx 1
b0 0
b0 /
b0 .
b0 -
b0 ,
0+
b0 *
b0 )
0(
b0 '
b0 &
b0 %
b0 $
b0 #
b0 "
b0 !
$end
#1
b1 %
b1 '
b0 3
b0 2
b0 1
b0 4
#2
b10 %
b10 '
#3
b11 %
b11 '
#4
b0 "
b0 /
b0 )
b0 *
b0 %
b0 '
b1 $
b1 &
#5
b1 !
b1 ,
b1 .
b1 "
b1 /
b1 )
b1 #
b1 0
b1 %
b1 '
#6
b10 !
b10 ,
1+
b0 .
b1 -
b10 "
b10 /
b0 )
b1 *
b10 #
b10 0
b10 %
b10 '
b1 3
b1 2
b1 1
b1 4
#7
b11 !
b11 ,
b1 .
b11 "
b11 /
b1 )
b11 #
b11 0
b11 %
b11 '
b10 3
b10 2
b10 1
b10 4
#8
b0 !
b0 ,
0+
b0 .
b0 -
b0 "
b0 /
b0 )
b0 *
b0 #
b0 0
b0 %
b0 '
b10 $
b10 &
b11 3
b11 2
b11 1
b11 4
#9
b10 !
b10 ,
1+
b10 .
b10 "
b10 /
b10 )
b10 #
b10 0
b1 %
b1 '
b0 3
b0 2
b0 1
b0 4
#10
0+
b100 !
b100 ,
b0 .
b10 -
b100 "
b100 /
b0 )
b10 *
b100 #
b100 0
b10 %
b10 '
b10 3
b10 2
b10 1
b10 4
#11
b110 !
b110 ,
1+
b10 .
b110 "
b110 /
b10 )
b110 #
b110 0
b11 %
b11 '
b100 3
b100 2
b100 1
b100 4
#12
0+
b0 !
b0 ,
b0 .
b0 -
b0 "
b0 /
b0 )
b0 *
b0 #
b0 0
b0 %
b0 '
b11 $
b11 &
b110 3
b110 2
b110 1
b110 4
#13
b11 !
b11 ,
1+
b11 .
b11 "
b11 /
b11 )
b11 #
b11 0
b1 %
b1 '
b0 3
b0 2
b0 1
b0 4
#14
b110 !
b110 ,
b0 .
b11 -
b110 "
b110 /
b0 )
b11 *
b110 #
b110 0
b10 %
b10 '
b11 3
b11 2
b11 1
b11 4
#15
b1001 !
b1001 ,
0+
1(
b11 .
b1001 "
b1001 /
b11 )
b1001 #
b1001 0
b11 %
b11 '
b110 3
b110 2
b110 1
b110 4
#16
b1001 3
b1001 2
b1001 1
b1001 4
