Homework3/decoder_3to8/sim/wave.vcd
$date
	Fri Oct 10 20:56:44 2025
$end
$version
	Icarus Verilog
$end
$timescale
	1s
$end
$scope module test_bench $end
$var wire 8 ! gate_out [7:0] $end
$var wire 8 " data_out [7:0] $end
$var wire 8 # behav_out [7:0] $end
$var reg 3 $ s [2:0] $end
$scope module DUT $end
$var wire 1 % n0 $end
$var wire 1 & n1 $end
$var wire 1 ' n2 $end
$var wire 3 ( s [2:0] $end
$var wire 8 ) gate_out [7:0] $end
$var wire 8 * data_out [7:0] $end
$var reg 8 + behav_out [7:0] $end
$upscope $end
$upscope $end
$enddefinitions $end
#0
$dumpvars
b1 +
b1 *
b1 )
b0 (
1'
1&
1%
b0 $
b1 #
b1 "
b1 !
$end
#1
0%
b10 !
b10 )
b10 #
b10 +
b10 "
b10 *
b1 $
b1 (
#2
1%
0&
b100 !
b100 )
b100 #
b100 +
b100 "
b100 *
b10 $
b10 (
#3
0%
b1000 !
b1000 )
b1000 #
b1000 +
b1000 "
b1000 *
b11 $
b11 (
#4
1%
1&
0'
b10000 !
b10000 )
b10000 #
b10000 +
b10000 "
b10000 *
b100 $
b100 (
#5
0%
b100000 !
b100000 )
b100000 #
b100000 +
b100000 "
b100000 *
b101 $
b101 (
#6
1%
0&
b1000000 !
b1000000 )
b1000000 #
b1000000 +
b1000000 "
b1000000 *
b110 $
b110 (
#7
0%
b10000000 !
b10000000 )
b10000000 #
b10000000 +
b10000000 "
b10000000 *
b111 $
b111 (
